
MSE =

  Columns 1 through 9

    0.6340    0.6340    0.6339    0.6338    0.6338    0.6339    0.6339    0.6339    0.6338

  Columns 10 through 18

    0.6339    0.6339    0.6339    0.6336    0.6339    0.6339    0.6339    0.6339    0.6338

  Columns 19 through 20

    0.6339    0.6338


NC =

  Columns 1 through 9

    0.9996    0.9985    0.9996    0.9987    0.9997    0.9999    0.9999    0.9988    0.9997

  Columns 10 through 18

    0.9999    0.9982    0.9997    0.9999    0.9999    0.9997    0.9993    0.9985    0.9985

  Columns 19 through 20

    0.9994    0.9980


PSNR =

  Columns 1 through 9

   50.1101   50.1102   50.1108   50.1113   50.1114   50.1106   50.1104   50.1106   50.1110

  Columns 10 through 18

   50.1107   50.1108   50.1105   50.1123   50.1106   50.1109   50.1105   50.1104   50.1110

  Columns 19 through 20

   50.1106   50.1112


corr_coef =

  Columns 1 through 9

    0.7369    0.7369    0.7369    0.7369    0.7369    0.7369    0.7369    0.7368    0.7370

  Columns 10 through 18

    0.7369    0.7370    0.7369    0.7369    0.7369    0.7369    0.7369    0.7369    0.7369

  Columns 19 through 20

    0.7369    0.7370

