
MSE =

  Columns 1 through 8

    0.0446    0.0450    0.0453    0.0450    0.0447    0.0448    0.0445    0.0450

  Columns 9 through 16

    0.0452    0.0447    0.0451    0.0448    0.0451    0.0446    0.0447    0.0451

  Columns 17 through 20

    0.0445    0.0452    0.0451    0.0451


PSNR =

  Columns 1 through 8

   61.6380   61.5989   61.5680   61.5967   61.6297   61.6209   61.6503   61.5980

  Columns 9 through 16

   61.5775   61.6320   61.5937   61.6133   61.5859   61.6331   61.6308   61.5917

  Columns 17 through 20

   61.6432   61.5780   61.5890   61.5884


corr_coef =

  Columns 1 through 8

    0.9274    0.9271    0.9270    0.9271    0.9271    0.9270    0.9275    0.9272

  Columns 9 through 16

    0.9269    0.9273    0.9272    0.9273    0.9269    0.9272    0.9274    0.9269

  Columns 17 through 20

    0.9272    0.9267    0.9273    0.9272

