
MSE =

  Columns 1 through 8

   15.4124   15.4305   15.4064   15.4186   15.4281   15.4270   15.4010   15.4125

  Columns 9 through 16

   15.4291   15.4177   15.4369   15.4462   15.4082   15.4071   15.3992   15.4017

  Columns 17 through 20

   15.4299   15.4568   15.3900   15.4040


NC =

  Columns 1 through 8

    1.7581    1.7562    1.7563    1.7566    1.7576    1.7557    1.7572    1.7553

  Columns 9 through 16

    1.7555    1.7562    1.7573    1.7591    1.7566    1.7546    1.7548    1.7562

  Columns 17 through 20

    1.7577    1.7580    1.7551    1.7562


PSNR =

  Columns 1 through 8

   36.2521   36.2470   36.2538   36.2504   36.2477   36.2480   36.2553   36.2521

  Columns 9 through 16

   36.2474   36.2506   36.2452   36.2426   36.2533   36.2536   36.2558   36.2551

  Columns 17 through 20

   36.2472   36.2396   36.2584   36.2545


corr_coef =

  Columns 1 through 8

    0.6319    0.6317    0.6319    0.6318    0.6318    0.6315    0.6318    0.6316

  Columns 9 through 16

    0.6316    0.6316    0.6316    0.6318    0.6318    0.6316    0.6317    0.6316

  Columns 17 through 20

    0.6317    0.6317    0.6317    0.6318

