
MSE =

  Columns 1 through 8

    0.0346    0.0345    0.0347    0.0347    0.0346    0.0346    0.0347    0.0346

  Columns 9 through 16

    0.0347    0.0347    0.0346    0.0345    0.0346    0.0345    0.0347    0.0347

  Columns 17 through 20

    0.0347    0.0346    0.0346    0.0345


NC =

  Columns 1 through 8

    0.9325    0.9324    0.9325    0.9325    0.9325    0.9325    0.9325    0.9324

  Columns 9 through 16

    0.9325    0.9326    0.9325    0.9324    0.9325    0.9324    0.9326    0.9326

  Columns 17 through 20

    0.9326    0.9324    0.9325    0.9324


PSNR =

  Columns 1 through 8

   62.7343   62.7491   62.7308   62.7322   62.7373   62.7397   62.7324   62.7442

  Columns 9 through 16

   62.7321   62.7325   62.7450   62.7492   62.7418   62.7502   62.7238   62.7291

  Columns 17 through 20

   62.7305   62.7459   62.7436   62.7468


corr_coef =

  Columns 1 through 8

    0.9351    0.9352    0.9350    0.9350    0.9351    0.9351    0.9350    0.9351

  Columns 9 through 16

    0.9350    0.9350    0.9352    0.9351    0.9351    0.9352    0.9350    0.9350

  Columns 17 through 20

    0.9350    0.9351    0.9351    0.9351

