
MSE =

  Columns 1 through 8

    0.4372    0.4354    0.4350    0.4370    0.4348    0.4355    0.4371    0.4341

  Columns 9 through 16

    0.4338    0.4343    0.4368    0.4327    0.4365    0.4328    0.4329    0.4345

  Columns 17 through 20

    0.4341    0.4347    0.4352    0.4361


NC =

  Columns 1 through 8

    0.9996    0.9985    0.9996    0.9987    0.9997    0.9999    0.9999    0.9988

  Columns 9 through 16

    0.9997    0.9999    0.9982    0.9997    0.9999    0.9999    0.9997    0.9993

  Columns 17 through 20

    0.9985    0.9985    0.9994    0.9980


PSNR =

  Columns 1 through 8

   51.7241   51.7417   51.7464   51.7256   51.7482   51.7413   51.7254   51.7546

  Columns 9 through 16

   51.7579   51.7532   51.7277   51.7690   51.7311   51.7677   51.7665   51.7508

  Columns 17 through 20

   51.7548   51.7490   51.7438   51.7349


corr_coef =

  Columns 1 through 8

    0.7818    0.7824    0.7831    0.7825    0.7815    0.7830    0.7822    0.7832

  Columns 9 through 16

    0.7824    0.7816    0.7827    0.7830    0.7832    0.7831    0.7828    0.7820

  Columns 17 through 20

    0.7822    0.7827    0.7818    0.7829

