
MSE =

  Columns 1 through 8

   45.2352   45.8421   44.6675   45.9028   44.5363   43.3006   44.3462   45.9091

  Columns 9 through 16

   43.9637   43.7322   45.2727   44.6350   43.5231   45.7104   43.5257   45.4201

  Columns 17 through 20

   45.4769   43.2403   45.6204   43.2308


NC =

  Columns 1 through 8

    3.1461    3.1912    3.1494    3.1658    3.0904    3.0936    3.1200    3.1999

  Columns 9 through 16

    3.1198    3.0321    3.1255    3.1498    3.1133    3.1407    3.0941    3.1054

  Columns 17 through 20

    3.1858    3.0729    3.1749    3.1310


PSNR =

  Columns 1 through 8

   31.5760   31.5182   31.6309   31.5124   31.6437   31.7659   31.6622   31.5118

  Columns 9 through 16

   31.6999   31.7228   31.5724   31.6340   31.7436   31.5307   31.7433   31.5583

  Columns 17 through 20

   31.5529   31.7719   31.5392   31.7729


corr_coef =

  Columns 1 through 8

    0.6295    0.6312    0.6305    0.6294    0.6275    0.6287    0.6279    0.6363

  Columns 9 through 16

    0.6296    0.6301    0.6311    0.6305    0.6287    0.6272    0.6274    0.6297

  Columns 17 through 20

    0.6333    0.6309    0.6334    0.6372

