
MSE =

  Columns 1 through 9

    6.3856    6.1825    6.2450    6.5731    6.5418    6.3387    6.2762    6.5262    6.3231

  Columns 10 through 18

    6.2918    6.4793    6.5731    6.4481    6.5731    6.3856    6.3231    6.1825    6.4793

  Columns 19 through 20

    6.5575    6.6512


NC =

  Columns 1 through 9

    0.9992    0.9992    0.9987    0.9991    0.9994    0.9992    0.9991    0.9991    0.9995

  Columns 10 through 18

    0.9986    0.9996    0.9996    0.9988    0.9998    0.9986    0.9992    0.9995    0.9998

  Columns 19 through 20

    0.9985    0.9992


PSNR =

  Columns 1 through 9

   40.0788   40.2192   40.1755   39.9531   39.9738   40.1108   40.1538   39.9842   40.1215

  Columns 10 through 18

   40.1430   40.0155   39.9531   40.0365   39.9531   40.0788   40.1215   40.2192   40.0155

  Columns 19 through 20

   39.9634   39.9018


psnr2dB_values =

  Columns 1 through 9

   15.9854   15.9850   15.9881   15.9637   15.9660   15.9731   15.9936   15.9592   15.9822

  Columns 10 through 18

   15.9846   15.9706   15.9558   15.9808   15.9558   15.9775   15.9822   15.9929   15.9627

  Columns 19 through 20

   15.9649   15.9581


BER =

  Columns 1 through 9

   51.5625   50.1953   48.6328   49.6094   50.3906   50.3906   49.8047   50.0000   49.0234

  Columns 10 through 18

   50.0000   49.4141   47.0703   49.8047   46.4844   49.4141   48.8281   47.4609   48.6328

  Columns 19 through 20

   49.2188   51.7578

