
MSE =

  Columns 1 through 8

    1.1499    1.1506    1.1499    1.1501    1.1507    1.1492    1.1500    1.1497

  Columns 9 through 16

    1.1515    1.1500    1.1504    1.1503    1.1514    1.1501    1.1509    1.1498

  Columns 17 through 20

    1.1498    1.1498    1.1491    1.1511


NC =

  Columns 1 through 8

    0.9996    0.9985    0.9996    0.9987    0.9997    0.9999    0.9999    0.9988

  Columns 9 through 16

    0.9997    0.9999    0.9982    0.9997    0.9999    0.9999    0.9997    0.9993

  Columns 17 through 20

    0.9985    0.9985    0.9994    0.9980


PSNR =

  Columns 1 through 8

   47.5243   47.5215   47.5243   47.5234   47.5211   47.5270   47.5238   47.5251

  Columns 9 through 16

   47.5182   47.5240   47.5222   47.5226   47.5185   47.5236   47.5205   47.5245

  Columns 17 through 20

   47.5246   47.5245   47.5270   47.5198


corr_coef =

  Columns 1 through 8

    0.6896    0.6893    0.6894    0.6892    0.6892    0.6897    0.6894    0.6892

  Columns 9 through 16

    0.6892    0.6892    0.6893    0.6892    0.6892    0.6894    0.6893    0.6893

  Columns 17 through 20

    0.6892    0.6895    0.6893    0.6894

