
MSE =

  Columns 1 through 8

    0.6222    0.6218    0.6220    0.6223    0.6227    0.6220    0.6222    0.6217

  Columns 9 through 16

    0.6208    0.6229    0.6210    0.6222    0.6219    0.6221    0.6222    0.6226

  Columns 17 through 20

    0.6215    0.6223    0.6226    0.6225


NC =

  Columns 1 through 8

    0.9996    0.9985    0.9996    0.9987    0.9997    0.9999    0.9999    0.9988

  Columns 9 through 16

    0.9997    0.9999    0.9982    0.9997    0.9999    0.9999    0.9997    0.9993

  Columns 17 through 20

    0.9985    0.9985    0.9994    0.9980


PSNR =

  Columns 1 through 8

   50.1912   50.1945   50.1930   50.1906   50.1878   50.1930   50.1916   50.1952

  Columns 9 through 16

   50.2014   50.1865   50.2002   50.1913   50.1934   50.1921   50.1917   50.1884

  Columns 17 through 20

   50.1961   50.1905   50.1890   50.1897


corr_coef =

  Columns 1 through 8

    0.7330    0.7331    0.7329    0.7331    0.7329    0.7333    0.7333    0.7329

  Columns 9 through 16

    0.7331    0.7327    0.7334    0.7329    0.7332    0.7331    0.7330    0.7329

  Columns 17 through 20

    0.7328    0.7331    0.7329    0.7330

