
MSE =

  Columns 1 through 8

    4.2597    4.2624    4.2573    4.2719    4.2598    4.2587    4.2601    4.2583

  Columns 9 through 16

    4.2642    4.2615    4.2594    4.2592    4.2586    4.2602    4.2596    4.2605

  Columns 17 through 20

    4.2510    4.2598    4.2611    4.2667


NC =

  Columns 1 through 8

    1.0214    1.0205    1.0191    1.0210    1.0207    1.0201    1.0206    1.0200

  Columns 9 through 16

    1.0217    1.0209    1.0210    1.0206    1.0213    1.0202    1.0210    1.0202

  Columns 17 through 20

    1.0220    1.0196    1.0200    1.0197


PSNR =

  Columns 1 through 8

   41.8371   41.8342   41.8395   41.8246   41.8369   41.8381   41.8366   41.8384

  Columns 9 through 16

   41.8324   41.8351   41.8373   41.8375   41.8381   41.8365   41.8371   41.8362

  Columns 17 through 20

   41.8459   41.8369   41.8356   41.8299


corr_coef =

  Columns 1 through 8

    0.6686    0.6684    0.6683    0.6686    0.6683    0.6683    0.6688    0.6684

  Columns 9 through 16

    0.6683    0.6684    0.6685    0.6684    0.6684    0.6682    0.6683    0.6682

  Columns 17 through 20

    0.6685    0.6683    0.6681    0.6683

