
MSE =

  Columns 1 through 9

    5.4394    5.1738    5.2050    5.5956    5.3456    5.2050    4.8925    4.7363    5.4081

  Columns 10 through 18

    5.1894    5.3456    5.5644    4.9706    5.2831    5.0644    5.3769    5.2675    5.2206

  Columns 19 through 20

    5.2675    5.4863


NC =

  Columns 1 through 9

    0.9992    0.9998    0.9990    0.9995    0.9997    0.9997    0.9996    0.9994    0.9998

  Columns 10 through 18

    0.9986    1.0005    1.0002    0.9989    1.0007    0.9983    0.9998    1.0003    1.0005

  Columns 19 through 20

    0.9984    0.9997


PSNR =

  Columns 1 through 9

   40.7753   40.9927   40.9666   40.6523   40.8508   40.9666   41.2355   41.3764   40.8003

  Columns 10 through 18

   40.9796   40.8508   40.6766   41.1667   40.9019   41.0855   40.8255   40.9147   40.9536

  Columns 19 through 20

   40.9147   40.7380


psnr2dB_values =

  Columns 1 through 9

   16.1506   16.1735   16.1775   16.1308   16.1654   16.1707   16.1988   16.2202   16.1533

  Columns 10 through 18

   16.1721   16.1517   16.1470   16.1849   16.1639   16.1899   16.1491   16.1653   16.1694

  Columns 19 through 20

   16.1721   16.1398


BER =

  Columns 1 through 9

   51.5625   50.1953   48.6328   49.6094   50.3906   50.3906   49.8047   50.0000   49.0234

  Columns 10 through 18

   50.0000   49.4141   47.0703   49.8047   46.4844   49.4141   48.8281   47.4609   48.6328

  Columns 19 through 20

   49.2188   51.7578

